{
  "content": [
    {
      "matchId": "68ef64cd99da6822bad79e53",
      "tier": "PLATINUM",
      "rank": "I"
    },
    {
      "matchId": "68ef64cd99da6822bad79e54",
      "tier": "PLATINUM",
      "rank": "I"
    },
    {
      "matchId": "68ef64cd99da6822bad79e55",
      "tier": "PLATINUM",
      "rank": "I"
    },
    {
      "matchId": "68ef64cd99da6822bad79e56",
      "tier": "PLATINUM",
      "rank": "I"
    },
    {
      "matchId": "68ef64cd99da6822bad79e57",
      "tier": "PLATINUM",
      "rank": "I"
    },
    {
      "matchId": "68ef64cd99da6822bad79e58",
      "tier": "EMERALD",
      "rank": "IV"
    },
    {
      "matchId": "68ef64cd99da6822bad79e59",
      "tier": "PLATINUM",
      "rank": "I"
    },
    {
      "matchId": "68ef64cd99da6822bad79e5a",
      "tier": "PLATINUM",
      "rank": "I"
    },
    {
      "matchId": "68ef64cd99da6822bad79e5b",
      "tier": "PLATINUM",
      "rank": "I"
    },
    {
      "matchId": "68ef64cd99da6822bad79e5c",
      "tier": "PLATINUM",
      "rank": "I"
    },
    {
      "matchId": "68ef64cd99da6822bad79e5d",
      "tier": "PLATINUM",
      "rank": "I"
    },
    {
      "matchId": "68ef64cd99da6822bad79e5e",
      "tier": "PLATINUM",
      "rank": "I"
    },
    {
      "matchId": "68ef64cd99da6822bad79e5f",
      "tier": "PLATINUM",
      "rank": "I"
    },
    {
      "matchId": "68ef64cd99da6822bad79e60",
      "tier": "PLATINUM",
      "rank": "II"
    },
    {
      "matchId": "68ef64cd99da6822bad79e61",
      "tier": "PLATINUM",
      "rank": "I"
    },
    {
      "matchId": "68ef64cd99da6822bad79e62",
      "tier": "PLATINUM",
      "rank": "I"
    },
    {
      "matchId": "68ef64cd99da6822bad79e63",
      "tier": "PLATINUM",
      "rank": "I"
    },
    {
      "matchId": "68ef64cd99da6822bad79e64",
      "tier": "PLATINUM",
      "rank": "I"
    },
    {
      "matchId": "68ef64cd99da6822bad79e65",
      "tier": "PLATINUM",
      "rank": "I"
    },
    {
      "matchId": "68ef64cd99da6822bad79e66",
      "tier": "PLATINUM",
      "rank": "I"
    },
    {
      "matchId": "68ef64cd99da6822bad79e67",
      "tier": "PLATINUM",
      "rank": "I"
    },
    {
      "matchId": "68ef64cd99da6822bad79e68",
      "tier": "PLATINUM",
      "rank": "I"
    },
    {
      "matchId": "68ef64cd99da6822bad79e69",
      "tier": "PLATINUM",
      "rank": "I"
    },
    {
      "matchId": "68ef64cd99da6822bad79e6a",
      "tier": "PLATINUM",
      "rank": "I"
    },
    {
      "matchId": "68ef64cd99da6822bad79e6b",
      "tier": "PLATINUM",
      "rank": "I"
    },
    {
      "matchId": "68ef64cd99da6822bad79e6c",
      "tier": "PLATINUM",
      "rank": "I"
    },
    {
      "matchId": "68ef64cd99da6822bad79e6d",
      "tier": "PLATINUM",
      "rank": "I"
    },
    {
      "matchId": "68ef64cd99da6822bad79e6e",
      "tier": "PLATINUM",
      "rank": "I"
    },
    {
      "matchId": "68ef64cd99da6822bad79e6f",
      "tier": "PLATINUM",
      "rank": "I"
    },
    {
      "matchId": "68ef64cd99da6822bad79e70",
      "tier": "PLATINUM",
      "rank": "I"
    },
    {
      "matchId": "68ef64cd99da6822bad79e71",
      "tier": "PLATINUM",
      "rank": "I"
    },
    {
      "matchId": "68ef64cd99da6822bad79e72",
      "tier": "PLATINUM",
      "rank": "I"
    },
    {
      "matchId": "68ef64cd99da6822bad79e73",
      "tier": "PLATINUM",
      "rank": "I"
    },
    {
      "matchId": "68ef64cd99da6822bad79e74",
      "tier": "PLATINUM",
      "rank": "I"
    },
    {
      "matchId": "68ef64cd99da6822bad79e75",
      "tier": "PLATINUM",
      "rank": "I"
    },
    {
      "matchId": "68ef64cd99da6822bad79e76",
      "tier": "PLATINUM",
      "rank": "I"
    },
    {
      "matchId": "68ef64cd99da6822bad79e77",
      "tier": "PLATINUM",
      "rank": "I"
    },
    {
      "matchId": "68ef64cd99da6822bad79e78",
      "tier": "PLATINUM",
      "rank": "I"
    },
    {
      "matchId": "68ef64cd99da6822bad79e79",
      "tier": "PLATINUM",
      "rank": "I"
    },
    {
      "matchId": "68ef64cd99da6822bad79e7a",
      "tier": "PLATINUM",
      "rank": "I"
    },
    {
      "matchId": "68ef64cd99da6822bad79e7b",
      "tier": "PLATINUM",
      "rank": "I"
    },
    {
      "matchId": "68ef64cd99da6822bad79e7c",
      "tier": "PLATINUM",
      "rank": "I"
    },
    {
      "matchId": "68ef64cd99da6822bad79e7d",
      "tier": "PLATINUM",
      "rank": "I"
    },
    {
      "matchId": "68ef64cd99da6822bad79e7e",
      "tier": "PLATINUM",
      "rank": "I"
    },
    {
      "matchId": "68ef64cd99da6822bad79e7f",
      "tier": "PLATINUM",
      "rank": "I"
    },
    {
      "matchId": "68ef64cd99da6822bad79e80",
      "tier": "PLATINUM",
      "rank": "I"
    },
    {
      "matchId": "68ef64cd99da6822bad79e81",
      "tier": "PLATINUM",
      "rank": "I"
    },
    {
      "matchId": "68ef64cd99da6822bad79e82",
      "tier": "PLATINUM",
      "rank": "I"
    },
    {
      "matchId": "68ef64cd99da6822bad79e83",
      "tier": "PLATINUM",
      "rank": "I"
    },
    {
      "matchId": "68ef64cd99da6822bad79e84",
      "tier": "PLATINUM",
      "rank": "I"
    }
  ],
  "page": 0,
  "size": 50,
  "totalElements": 101846,
  "totalPages": 2037,
  "sort": "matchId,asc"
}