{
  "content": [
    {
      "puuid": "68ef64d699da6822bad9393e",
      "tier": "CHALLENGER",
      "rank": "I",
      "leaguePoints": 2059,
      "wins": 375,
      "losses": 262,
      "veteran": true,
      "inactive": false,
      "freshBlood": false
    },
    {
      "puuid": "68ef64d699da6822bad93903",
      "tier": "CHALLENGER",
      "rank": "I",
      "leaguePoints": 1831,
      "wins": 280,
      "losses": 201,
      "veteran": true,
      "inactive": false,
      "freshBlood": false
    },
    {
      "puuid": "68ef64d699da6822bad939fa",
      "tier": "CHALLENGER",
      "rank": "I",
      "leaguePoints": 1690,
      "wins": 460,
      "losses": 343,
      "veteran": true,
      "inactive": false,
      "freshBlood": false
    },
    {
      "puuid": "68ef64d699da6822bad93913",
      "tier": "CHALLENGER",
      "rank": "I",
      "leaguePoints": 1680,
      "wins": 263,
      "losses": 198,
      "veteran": true,
      "inactive": false,
      "freshBlood": false
    },
    {
      "puuid": "68ef64d699da6822bad938e6",
      "tier": "CHALLENGER",
      "rank": "I",
      "leaguePoints": 1653,
      "wins": 343,
      "losses": 251,
      "veteran": true,
      "inactive": false,
      "freshBlood": false
    },
    {
      "puuid": "68ef64d699da6822bad93908",
      "tier": "CHALLENGER",
      "rank": "I",
      "leaguePoints": 1641,
      "wins": 281,
      "losses": 218,
      "veteran": true,
      "inactive": false,
      "freshBlood": false
    },
    {
      "puuid": "68ef64d699da6822bad939a1",
      "tier": "CHALLENGER",
      "rank": "I",
      "leaguePoints": 1635,
      "wins": 203,
      "losses": 111,
      "veteran": true,
      "inactive": false,
      "freshBlood": false
    },
    {
      "puuid": "68ef64d699da6822bad938f3",
      "tier": "CHALLENGER",
      "rank": "I",
      "leaguePoints": 1619,
      "wins": 365,
      "losses": 253,
      "veteran": true,
      "inactive": false,
      "freshBlood": false
    },
    {
      "puuid": "68ef64d699da6822bad939f7",
      "tier": "CHALLENGER",
      "rank": "I",
      "leaguePoints": 1565,
      "wins": 277,
      "losses": 200,
      "veteran": true,
      "inactive": false,
      "freshBlood": false
    },
    {
      "puuid": "68ef64d699da6822bad9394e",
      "tier": "CHALLENGER",
      "rank": "I",
      "leaguePoints": 1561,
      "wins": 506,
      "losses": 446,
      "veteran": true,
      "inactive": false,
      "freshBlood": false
    },
    {
      "puuid": "68ef64d699da6822bad9396f",
      "tier": "CHALLENGER",
      "rank": "I",
      "leaguePoints": 1537,
      "wins": 231,
      "losses": 171,
      "veteran": true,
      "inactive": false,
      "freshBlood": false
    },
    {
      "puuid": "68ef64d699da6822bad93a02",
      "tier": "CHALLENGER",
      "rank": "I",
      "leaguePoints": 1533,
      "wins": 260,
      "losses": 201,
      "veteran": true,
      "inactive": false,
      "freshBlood": false
    },
    {
      "puuid": "68ef64d699da6822bad939d8",
      "tier": "CHALLENGER",
      "rank": "I",
      "leaguePoints": 1528,
      "wins": 351,
      "losses": 285,
      "veteran": true,
      "inactive": false,
      "freshBlood": false
    },
    {
      "puuid": "68ef64d699da6822bad93946",
      "tier": "CHALLENGER",
      "rank": "I",
      "leaguePoints": 1489,
      "wins": 156,
      "losses": 77,
      "veteran": true,
      "inactive": false,
      "freshBlood": false
    },
    {
      "puuid": "68ef64d699da6822bad93984",
      "tier": "CHALLENGER",
      "rank": "I",
      "leaguePoints": 1479,
      "wins": 284,
      "losses": 231,
      "veteran": true,
      "inactive": false,
      "freshBlood": false
    },
    {
      "puuid": "68ef64d699da6822bad93991",
      "tier": "CHALLENGER",
      "rank": "I",
      "leaguePoints": 1464,
      "wins": 237,
      "losses": 181,
      "veteran": true,
      "inactive": false,
      "freshBlood": false
    },
    {
      "puuid": "68ef64d699da6822bad9391b",
      "tier": "CHALLENGER",
      "rank": "I",
      "leaguePoints": 1458,
      "wins": 239,
      "losses": 173,
      "veteran": true,
      "inactive": false,
      "freshBlood": false
    },
    {
      "puuid": "68ef64d699da6822bad939f8",
      "tier": "CHALLENGER",
      "rank": "I",
      "leaguePoints": 1454,
      "wins": 266,
      "losses": 211,
      "veteran": true,
      "inactive": false,
      "freshBlood": false
    },
    {
      "puuid": "68ef64d699da6822bad9395c",
      "tier": "CHALLENGER",
      "rank": "I",
      "leaguePoints": 1431,
      "wins": 339,
      "losses": 280,
      "veteran": true,
      "inactive": false,
      "freshBlood": false
    },
    {
      "puuid": "68ef64d699da6822bad9391d",
      "tier": "CHALLENGER",
      "rank": "I",
      "leaguePoints": 1420,
      "wins": 254,
      "losses": 208,
      "veteran": true,
      "inactive": false,
      "freshBlood": false
    },
    {
      "puuid": "68ef64d699da6822bad9394a",
      "tier": "CHALLENGER",
      "rank": "I",
      "leaguePoints": 1414,
      "wins": 319,
      "losses": 266,
      "veteran": true,
      "inactive": false,
      "freshBlood": false
    },
    {
      "puuid": "68ef64d699da6822bad93a0d",
      "tier": "CHALLENGER",
      "rank": "I",
      "leaguePoints": 1400,
      "wins": 523,
      "losses": 426,
      "veteran": true,
      "inactive": false,
      "freshBlood": false
    },
    {
      "puuid": "68ef64d699da6822bad939af",
      "tier": "CHALLENGER",
      "rank": "I",
      "leaguePoints": 1387,
      "wins": 407,
      "losses": 349,
      "veteran": true,
      "inactive": false,
      "freshBlood": false
    },
    {
      "puuid": "68ef64d699da6822bad93919",
      "tier": "CHALLENGER",
      "rank": "I",
      "leaguePoints": 1385,
      "wins": 340,
      "losses": 281,
      "veteran": true,
      "inactive": false,
      "freshBlood": false
    },
    {
      "puuid": "68ef64d699da6822bad938f5",
      "tier": "CHALLENGER",
      "rank": "I",
      "leaguePoints": 1373,
      "wins": 331,
      "losses": 261,
      "veteran": true,
      "inactive": false,
      "freshBlood": false
    },
    {
      "puuid": "68ef64d699da6822bad93953",
      "tier": "CHALLENGER",
      "rank": "I",
      "leaguePoints": 1359,
      "wins": 258,
      "losses": 210,
      "veteran": true,
      "inactive": false,
      "freshBlood": false
    },
    {
      "puuid": "68ef64d699da6822bad939d6",
      "tier": "CHALLENGER",
      "rank": "I",
      "leaguePoints": 1340,
      "wins": 225,
      "losses": 142,
      "veteran": false,
      "inactive": false,
      "freshBlood": false
    },
    {
      "puuid": "68ef64d699da6822bad93a05",
      "tier": "CHALLENGER",
      "rank": "I",
      "leaguePoints": 1338,
      "wins": 122,
      "losses": 66,
      "veteran": false,
      "inactive": false,
      "freshBlood": false
    },
    {
      "puuid": "68ef64d699da6822bad9393a",
      "tier": "CHALLENGER",
      "rank": "I",
      "leaguePoints": 1335,
      "wins": 144,
      "losses": 91,
      "veteran": false,
      "inactive": false,
      "freshBlood": false
    },
    {
      "puuid": "68ef64d699da6822bad939a2",
      "tier": "CHALLENGER",
      "rank": "I",
      "leaguePoints": 1329,
      "wins": 251,
      "losses": 198,
      "veteran": false,
      "inactive": false,
      "freshBlood": false
    },
    {
      "puuid": "68ef64d699da6822bad9398f",
      "tier": "CHALLENGER",
      "rank": "I",
      "leaguePoints": 1329,
      "wins": 732,
      "losses": 673,
      "veteran": true,
      "inactive": false,
      "freshBlood": false
    },
    {
      "puuid": "68ef64d699da6822bad938f0",
      "tier": "CHALLENGER",
      "rank": "I",
      "leaguePoints": 1327,
      "wins": 621,
      "losses": 555,
      "veteran": true,
      "inactive": false,
      "freshBlood": false
    },
    {
      "puuid": "68ef64d699da6822bad9392a",
      "tier": "CHALLENGER",
      "rank": "I",
      "leaguePoints": 1325,
      "wins": 253,
      "losses": 190,
      "veteran": false,
      "inactive": false,
      "freshBlood": false
    },
    {
      "puuid": "68ef64d699da6822bad93954",
      "tier": "CHALLENGER",
      "rank": "I",
      "leaguePoints": 1322,
      "wins": 277,
      "losses": 230,
      "veteran": true,
      "inactive": false,
      "freshBlood": false
    },
    {
      "puuid": "68ef64d699da6822bad93983",
      "tier": "CHALLENGER",
      "rank": "I",
      "leaguePoints": 1317,
      "wins": 290,
      "losses": 232,
      "veteran": true,
      "inactive": false,
      "freshBlood": false
    },
    {
      "puuid": "68ef64d699da6822bad9393f",
      "tier": "CHALLENGER",
      "rank": "I",
      "leaguePoints": 1312,
      "wins": 308,
      "losses": 249,
      "veteran": true,
      "inactive": false,
      "freshBlood": false
    },
    {
      "puuid": "68ef64d699da6822bad93935",
      "tier": "CHALLENGER",
      "rank": "I",
      "leaguePoints": 1310,
      "wins": 527,
      "losses": 432,
      "veteran": true,
      "inactive": false,
      "freshBlood": false
    },
    {
      "puuid": "68ef64d699da6822bad93998",
      "tier": "CHALLENGER",
      "rank": "I",
      "leaguePoints": 1309,
      "wins": 164,
      "losses": 121,
      "veteran": false,
      "inactive": false,
      "freshBlood": false
    },
    {
      "puuid": "68ef64d699da6822bad9393d",
      "tier": "CHALLENGER",
      "rank": "I",
      "leaguePoints": 1308,
      "wins": 473,
      "losses": 428,
      "veteran": true,
      "inactive": false,
      "freshBlood": false
    },
    {
      "puuid": "68ef64d699da6822bad93a07",
      "tier": "CHALLENGER",
      "rank": "I",
      "leaguePoints": 1299,
      "wins": 260,
      "losses": 211,
      "veteran": true,
      "inactive": false,
      "freshBlood": false
    },
    {
      "puuid": "68ef64d699da6822bad939d2",
      "tier": "CHALLENGER",
      "rank": "I",
      "leaguePoints": 1295,
      "wins": 250,
      "losses": 198,
      "veteran": true,
      "inactive": false,
      "freshBlood": false
    },
    {
      "puuid": "68ef64d699da6822bad9397b",
      "tier": "CHALLENGER",
      "rank": "I",
      "leaguePoints": 1289,
      "wins": 299,
      "losses": 250,
      "veteran": true,
      "inactive": false,
      "freshBlood": false
    },
    {
      "puuid": "68ef64d699da6822bad93939",
      "tier": "CHALLENGER",
      "rank": "I",
      "leaguePoints": 1284,
      "wins": 361,
      "losses": 301,
      "veteran": true,
      "inactive": false,
      "freshBlood": false
    },
    {
      "puuid": "68ef64d699da6822bad93931",
      "tier": "CHALLENGER",
      "rank": "I",
      "leaguePoints": 1281,
      "wins": 424,
      "losses": 332,
      "veteran": true,
      "inactive": false,
      "freshBlood": false
    },
    {
      "puuid": "68ef64d699da6822bad938ef",
      "tier": "CHALLENGER",
      "rank": "I",
      "leaguePoints": 1277,
      "wins": 349,
      "losses": 284,
      "veteran": true,
      "inactive": false,
      "freshBlood": false
    },
    {
      "puuid": "68ef64d699da6822bad938f7",
      "tier": "CHALLENGER",
      "rank": "I",
      "leaguePoints": 1269,
      "wins": 521,
      "losses": 465,
      "veteran": true,
      "inactive": false,
      "freshBlood": false
    },
    {
      "puuid": "68ef64d699da6822bad93948",
      "tier": "CHALLENGER",
      "rank": "I",
      "leaguePoints": 1260,
      "wins": 203,
      "losses": 140,
      "veteran": true,
      "inactive": false,
      "freshBlood": false
    },
    {
      "puuid": "68ef64d699da6822bad93a03",
      "tier": "CHALLENGER",
      "rank": "I",
      "leaguePoints": 1260,
      "wins": 197,
      "losses": 140,
      "veteran": true,
      "inactive": false,
      "freshBlood": false
    },
    {
      "puuid": "68ef64d699da6822bad93915",
      "tier": "CHALLENGER",
      "rank": "I",
      "leaguePoints": 1258,
      "wins": 321,
      "losses": 275,
      "veteran": true,
      "inactive": false,
      "freshBlood": false
    },
    {
      "puuid": "68ef64d699da6822bad93911",
      "tier": "CHALLENGER",
      "rank": "I",
      "leaguePoints": 1251,
      "wins": 112,
      "losses": 66,
      "veteran": false,
      "inactive": false,
      "freshBlood": false
    }
  ],
  "page": 0,
  "size": 50,
  "totalElements": 3560,
  "totalPages": 72,
  "sort": "leaguePoints,desc"
}